{
  "name": "November",
  "abbreviation": "Nov",
    "talks": [
      {
        "presenter": {
          "name": "James Stumme"
        },
        "presentation": {
          "title": "Updating SecDSM Website",
          "links": [
            {
              "url": "https://youtu.be/0GVO3ouyudE",
              "type": "youtube"
          }
          ]
        }
    },
      {
        "presenter": {
          "name": "Michael Jackson"
        },
        "presentation": {
          "title": "NextGen Vendor Risk Management:  How to Raise the Bar on <>aaS Providers.",
          "links": [
            {
              "url": "https://youtu.be/x0z1_crrigI",
              "type": "youtube"
          },
            {
              "url": "./2016/11/VRM-SecDSM.pdf",
              "type": "file-pdf-o"
          }
          ]
        }
    }
    ]
}
