{
  "name": "June",
  "abbreviation": "June",
    "talks": [
      {
        "presenter": {
          "name": "Ben Schmitt"
        },
        "presentation": {
          "title": "Archive/Analyze/Alert OpenDNS data using an S3 Bucket",
          "links": [
            {
              "url": "https://gist.github.com/benjschmitt/8c25bd7cf9dbc80de23208987e960ecc",
              "type": "github"
            }
          ]
        }
      },
      {
        "presenter": {
          "name": "Open Discussion"
        },
        "presentation": {
          "title": "Incident Response Tools"
        }
      }
    ]
}
